^C:\USERS\OWNER\DOCUMENTS\EITAN\MAGSHIMIM\C++\CHESS\MY-MERGE-CONFLICT-PROJECT\CHESSGAME\CHESSGAME\SOURCE.CPP
/c /ZI /JMC /nologo /W3 /WX- /diagnostics:column /sdl /Od /Oy- /D WIN32 /D _DEBUG /D _CONSOLE /D _UNICODE /D UNICODE /Gm- /EHsc /RTC1 /MDd /GS /fp:precise /permissive- /Zc:wchar_t /Zc:forScope /Zc:inline /Fo"DEBUG\\" /Fd"DEBUG\VC142.PDB" /Gd /TP /analyze- /FC C:\USERS\OWNER\DOCUMENTS\EITAN\MAGSHIMIM\C++\CHESS\MY-MERGE-CONFLICT-PROJECT\CHESSGAME\CHESSGAME\SOURCE.CPP
^C:\USERS\OWNER\DOCUMENTS\EITAN\MAGSHIMIM\C++\CHESS\MY-MERGE-CONFLICT-PROJECT\CHESSGAME\CHESSGAME\STDAFX.CPP
/c /ZI /JMC /nologo /W3 /WX- /diagnostics:column /sdl /Od /Oy- /D WIN32 /D _DEBUG /D _CONSOLE /D _UNICODE /D UNICODE /Gm- /EHsc /RTC1 /MDd /GS /fp:precise /permissive- /Zc:wchar_t /Zc:forScope /Zc:inline /Fo"DEBUG\\" /Fd"DEBUG\VC142.PDB" /Gd /TP /analyze- /FC C:\USERS\OWNER\DOCUMENTS\EITAN\MAGSHIMIM\C++\CHESS\MY-MERGE-CONFLICT-PROJECT\CHESSGAME\CHESSGAME\STDAFX.CPP
^C:\USERS\משתמש\DESKTOP\CPP\MY-MERGE-CONFLICT-PROJECT\MY-MERGE-CONFLICT-PROJECT\CHESSGAME\CHESSGAME\STDAFX.CPP
/c /ZI /JMC /nologo /W3 /WX- /diagnostics:column /sdl /Od /Oy- /D WIN32 /D _DEBUG /D _CONSOLE /D _UNICODE /D UNICODE /Gm- /EHsc /RTC1 /MDd /GS /fp:precise /permissive- /Zc:wchar_t /Zc:forScope /Zc:inline /Fo"DEBUG\\" /Fd"DEBUG\VC142.PDB" /Gd /TP /analyze- /FC C:\USERS\משתמש\DESKTOP\CPP\MY-MERGE-CONFLICT-PROJECT\MY-MERGE-CONFLICT-PROJECT\CHESSGAME\CHESSGAME\STDAFX.CPP
^C:\USERS\משתמש\DESKTOP\CPP\MY-MERGE-CONFLICT-PROJECT\MY-MERGE-CONFLICT-PROJECT\CHESSGAME\CHESSGAME\CHESSPIECE.CPP
/c /ZI /JMC /nologo /W3 /WX- /diagnostics:column /sdl /Od /Oy- /D WIN32 /D _DEBUG /D _CONSOLE /D _UNICODE /D UNICODE /Gm- /EHsc /RTC1 /MDd /GS /fp:precise /permissive- /Zc:wchar_t /Zc:forScope /Zc:inline /Fo"DEBUG\\" /Fd"DEBUG\VC142.PDB" /Gd /TP /analyze- /FC C:\USERS\משתמש\DESKTOP\CPP\MY-MERGE-CONFLICT-PROJECT\MY-MERGE-CONFLICT-PROJECT\CHESSGAME\CHESSGAME\CHESSPIECE.CPP
^C:\USERS\משתמש\DESKTOP\CPP\MY-MERGE-CONFLICT-PROJECT\MY-MERGE-CONFLICT-PROJECT\CHESSGAME\CHESSGAME\EMPTY.CPP
/c /ZI /JMC /nologo /W3 /WX- /diagnostics:column /sdl /Od /Oy- /D WIN32 /D _DEBUG /D _CONSOLE /D _UNICODE /D UNICODE /Gm- /EHsc /RTC1 /MDd /GS /fp:precise /permissive- /Zc:wchar_t /Zc:forScope /Zc:inline /Fo"DEBUG\\" /Fd"DEBUG\VC142.PDB" /Gd /TP /analyze- /FC C:\USERS\משתמש\DESKTOP\CPP\MY-MERGE-CONFLICT-PROJECT\MY-MERGE-CONFLICT-PROJECT\CHESSGAME\CHESSGAME\EMPTY.CPP
^C:\USERS\משתמש\DESKTOP\CPP\MY-MERGE-CONFLICT-PROJECT\MY-MERGE-CONFLICT-PROJECT\CHESSGAME\CHESSGAME\KING.CPP
/c /ZI /JMC /nologo /W3 /WX- /diagnostics:column /sdl /Od /Oy- /D WIN32 /D _DEBUG /D _CONSOLE /D _UNICODE /D UNICODE /Gm- /EHsc /RTC1 /MDd /GS /fp:precise /permissive- /Zc:wchar_t /Zc:forScope /Zc:inline /Fo"DEBUG\\" /Fd"DEBUG\VC142.PDB" /Gd /TP /analyze- /FC C:\USERS\משתמש\DESKTOP\CPP\MY-MERGE-CONFLICT-PROJECT\MY-MERGE-CONFLICT-PROJECT\CHESSGAME\CHESSGAME\KING.CPP
^C:\USERS\משתמש\DESKTOP\CPP\MY-MERGE-CONFLICT-PROJECT\MY-MERGE-CONFLICT-PROJECT\CHESSGAME\CHESSGAME\ROOK.CPP
/c /ZI /JMC /nologo /W3 /WX- /diagnostics:column /sdl /Od /Oy- /D WIN32 /D _DEBUG /D _CONSOLE /D _UNICODE /D UNICODE /Gm- /EHsc /RTC1 /MDd /GS /fp:precise /permissive- /Zc:wchar_t /Zc:forScope /Zc:inline /Fo"DEBUG\\" /Fd"DEBUG\VC142.PDB" /Gd /TP /analyze- /FC C:\USERS\משתמש\DESKTOP\CPP\MY-MERGE-CONFLICT-PROJECT\MY-MERGE-CONFLICT-PROJECT\CHESSGAME\CHESSGAME\ROOK.CPP
^C:\USERS\משתמש\DESKTOP\CPP\MY-MERGE-CONFLICT-PROJECT\MY-MERGE-CONFLICT-PROJECT\CHESSGAME\CHESSGAME\SOURCE.CPP
/c /ZI /JMC /nologo /W3 /WX- /diagnostics:column /sdl /Od /Oy- /D WIN32 /D _DEBUG /D _CONSOLE /D _UNICODE /D UNICODE /Gm- /EHsc /RTC1 /MDd /GS /fp:precise /permissive- /Zc:wchar_t /Zc:forScope /Zc:inline /Fo"DEBUG\\" /Fd"DEBUG\VC142.PDB" /Gd /TP /analyze- /FC C:\USERS\משתמש\DESKTOP\CPP\MY-MERGE-CONFLICT-PROJECT\MY-MERGE-CONFLICT-PROJECT\CHESSGAME\CHESSGAME\SOURCE.CPP
^C:\USERS\משתמש\DESKTOP\CPP\MY-MERGE-CONFLICT-PROJECT\MY-MERGE-CONFLICT-PROJECT\CHESSGAME\CHESSGAME\BOARD.CPP
/c /ZI /JMC /nologo /W3 /WX- /diagnostics:column /sdl /Od /Oy- /D WIN32 /D _DEBUG /D _CONSOLE /D _UNICODE /D UNICODE /Gm- /EHsc /RTC1 /MDd /GS /fp:precise /permissive- /Zc:wchar_t /Zc:forScope /Zc:inline /Fo"DEBUG\\" /Fd"DEBUG\VC142.PDB" /Gd /TP /analyze- /FC C:\USERS\משתמש\DESKTOP\CPP\MY-MERGE-CONFLICT-PROJECT\MY-MERGE-CONFLICT-PROJECT\CHESSGAME\CHESSGAME\BOARD.CPP
^C:\USERS\OWNER\DOCUMENTS\EITAN\MAGSHIMIM\C++\CHESSPROJECT\MY-MERGE-CONFLICT-PROJECT-MASTER\CHESSGAME\CHESSGAME\STDAFX.CPP
/c /ZI /JMC /nologo /W3 /WX- /diagnostics:column /sdl /Od /Oy- /D WIN32 /D _DEBUG /D _CONSOLE /D _UNICODE /D UNICODE /Gm- /EHsc /RTC1 /MDd /GS /fp:precise /permissive- /Zc:wchar_t /Zc:forScope /Zc:inline /Fo"DEBUG\\" /Fd"DEBUG\VC142.PDB" /Gd /TP /analyze- /FC C:\USERS\OWNER\DOCUMENTS\EITAN\MAGSHIMIM\C++\CHESSPROJECT\MY-MERGE-CONFLICT-PROJECT-MASTER\CHESSGAME\CHESSGAME\STDAFX.CPP
^C:\USERS\OWNER\DOCUMENTS\EITAN\MAGSHIMIM\C++\CHESSPROJECT\MY-MERGE-CONFLICT-PROJECT-MASTER\CHESSGAME\CHESSGAME\CHESSPIECE.CPP
/c /ZI /JMC /nologo /W3 /WX- /diagnostics:column /sdl /Od /Oy- /D WIN32 /D _DEBUG /D _CONSOLE /D _UNICODE /D UNICODE /Gm- /EHsc /RTC1 /MDd /GS /fp:precise /permissive- /Zc:wchar_t /Zc:forScope /Zc:inline /Fo"DEBUG\\" /Fd"DEBUG\VC142.PDB" /Gd /TP /analyze- /FC C:\USERS\OWNER\DOCUMENTS\EITAN\MAGSHIMIM\C++\CHESSPROJECT\MY-MERGE-CONFLICT-PROJECT-MASTER\CHESSGAME\CHESSGAME\CHESSPIECE.CPP
^C:\USERS\OWNER\DOCUMENTS\EITAN\MAGSHIMIM\C++\CHESSPROJECT\MY-MERGE-CONFLICT-PROJECT-MASTER\CHESSGAME\CHESSGAME\EMPTY.CPP
/c /ZI /JMC /nologo /W3 /WX- /diagnostics:column /sdl /Od /Oy- /D WIN32 /D _DEBUG /D _CONSOLE /D _UNICODE /D UNICODE /Gm- /EHsc /RTC1 /MDd /GS /fp:precise /permissive- /Zc:wchar_t /Zc:forScope /Zc:inline /Fo"DEBUG\\" /Fd"DEBUG\VC142.PDB" /Gd /TP /analyze- /FC C:\USERS\OWNER\DOCUMENTS\EITAN\MAGSHIMIM\C++\CHESSPROJECT\MY-MERGE-CONFLICT-PROJECT-MASTER\CHESSGAME\CHESSGAME\EMPTY.CPP
^C:\USERS\OWNER\DOCUMENTS\EITAN\MAGSHIMIM\C++\CHESSPROJECT\MY-MERGE-CONFLICT-PROJECT-MASTER\CHESSGAME\CHESSGAME\KING.CPP
/c /ZI /JMC /nologo /W3 /WX- /diagnostics:column /sdl /Od /Oy- /D WIN32 /D _DEBUG /D _CONSOLE /D _UNICODE /D UNICODE /Gm- /EHsc /RTC1 /MDd /GS /fp:precise /permissive- /Zc:wchar_t /Zc:forScope /Zc:inline /Fo"DEBUG\\" /Fd"DEBUG\VC142.PDB" /Gd /TP /analyze- /FC C:\USERS\OWNER\DOCUMENTS\EITAN\MAGSHIMIM\C++\CHESSPROJECT\MY-MERGE-CONFLICT-PROJECT-MASTER\CHESSGAME\CHESSGAME\KING.CPP
^C:\USERS\OWNER\DOCUMENTS\EITAN\MAGSHIMIM\C++\CHESSPROJECT\MY-MERGE-CONFLICT-PROJECT-MASTER\CHESSGAME\CHESSGAME\ROOK.CPP
/c /ZI /JMC /nologo /W3 /WX- /diagnostics:column /sdl /Od /Oy- /D WIN32 /D _DEBUG /D _CONSOLE /D _UNICODE /D UNICODE /Gm- /EHsc /RTC1 /MDd /GS /fp:precise /permissive- /Zc:wchar_t /Zc:forScope /Zc:inline /Fo"DEBUG\\" /Fd"DEBUG\VC142.PDB" /Gd /TP /analyze- /FC C:\USERS\OWNER\DOCUMENTS\EITAN\MAGSHIMIM\C++\CHESSPROJECT\MY-MERGE-CONFLICT-PROJECT-MASTER\CHESSGAME\CHESSGAME\ROOK.CPP
^C:\USERS\OWNER\DOCUMENTS\EITAN\MAGSHIMIM\C++\CHESSPROJECT\MY-MERGE-CONFLICT-PROJECT-MASTER\CHESSGAME\CHESSGAME\BOARD.CPP
/c /ZI /JMC /nologo /W3 /WX- /diagnostics:column /sdl /Od /Oy- /D WIN32 /D _DEBUG /D _CONSOLE /D _UNICODE /D UNICODE /Gm- /EHsc /RTC1 /MDd /GS /fp:precise /permissive- /Zc:wchar_t /Zc:forScope /Zc:inline /Fo"DEBUG\\" /Fd"DEBUG\VC142.PDB" /Gd /TP /analyze- /FC C:\USERS\OWNER\DOCUMENTS\EITAN\MAGSHIMIM\C++\CHESSPROJECT\MY-MERGE-CONFLICT-PROJECT-MASTER\CHESSGAME\CHESSGAME\BOARD.CPP
^C:\USERS\OWNER\DOCUMENTS\EITAN\MAGSHIMIM\C++\CHESSPROJECT\MY-MERGE-CONFLICT-PROJECT-MASTER\CHESSGAME\CHESSGAME\SOURCE.CPP
/c /ZI /JMC /nologo /W3 /WX- /diagnostics:column /sdl /Od /Oy- /D WIN32 /D _DEBUG /D _CONSOLE /D _UNICODE /D UNICODE /Gm- /EHsc /RTC1 /MDd /GS /fp:precise /permissive- /Zc:wchar_t /Zc:forScope /Zc:inline /Fo"DEBUG\\" /Fd"DEBUG\VC142.PDB" /Gd /TP /analyze- /FC C:\USERS\OWNER\DOCUMENTS\EITAN\MAGSHIMIM\C++\CHESSPROJECT\MY-MERGE-CONFLICT-PROJECT-MASTER\CHESSGAME\CHESSGAME\SOURCE.CPP
^C:\USERS\OWNER\DOCUMENTS\EITAN\MAGSHIMIM\C++\CHESSPROJECT\MY-MERGE-CONFLICT-PROJECT\CHESSGAME\CHESSGAME\STDAFX.CPP
/c /ZI /JMC /nologo /W3 /WX- /diagnostics:column /sdl /Od /Oy- /D WIN32 /D _DEBUG /D _CONSOLE /D _UNICODE /D UNICODE /Gm- /EHsc /RTC1 /MDd /GS /fp:precise /permissive- /Zc:wchar_t /Zc:forScope /Zc:inline /Fo"DEBUG\\" /Fd"DEBUG\VC142.PDB" /Gd /TP /analyze- /FC C:\USERS\OWNER\DOCUMENTS\EITAN\MAGSHIMIM\C++\CHESSPROJECT\MY-MERGE-CONFLICT-PROJECT\CHESSGAME\CHESSGAME\STDAFX.CPP
^C:\USERS\OWNER\DOCUMENTS\EITAN\MAGSHIMIM\C++\CHESSPROJECT\MY-MERGE-CONFLICT-PROJECT\CHESSGAME\CHESSGAME\CHESSPIECE.CPP
/c /ZI /JMC /nologo /W3 /WX- /diagnostics:column /sdl /Od /Oy- /D WIN32 /D _DEBUG /D _CONSOLE /D _UNICODE /D UNICODE /Gm- /EHsc /RTC1 /MDd /GS /fp:precise /permissive- /Zc:wchar_t /Zc:forScope /Zc:inline /Fo"DEBUG\\" /Fd"DEBUG\VC142.PDB" /Gd /TP /analyze- /FC C:\USERS\OWNER\DOCUMENTS\EITAN\MAGSHIMIM\C++\CHESSPROJECT\MY-MERGE-CONFLICT-PROJECT\CHESSGAME\CHESSGAME\CHESSPIECE.CPP
^C:\USERS\OWNER\DOCUMENTS\EITAN\MAGSHIMIM\C++\CHESSPROJECT\MY-MERGE-CONFLICT-PROJECT\CHESSGAME\CHESSGAME\EMPTY.CPP
/c /ZI /JMC /nologo /W3 /WX- /diagnostics:column /sdl /Od /Oy- /D WIN32 /D _DEBUG /D _CONSOLE /D _UNICODE /D UNICODE /Gm- /EHsc /RTC1 /MDd /GS /fp:precise /permissive- /Zc:wchar_t /Zc:forScope /Zc:inline /Fo"DEBUG\\" /Fd"DEBUG\VC142.PDB" /Gd /TP /analyze- /FC C:\USERS\OWNER\DOCUMENTS\EITAN\MAGSHIMIM\C++\CHESSPROJECT\MY-MERGE-CONFLICT-PROJECT\CHESSGAME\CHESSGAME\EMPTY.CPP
^C:\USERS\OWNER\DOCUMENTS\EITAN\MAGSHIMIM\C++\CHESSPROJECT\MY-MERGE-CONFLICT-PROJECT\CHESSGAME\CHESSGAME\KING.CPP
/c /ZI /JMC /nologo /W3 /WX- /diagnostics:column /sdl /Od /Oy- /D WIN32 /D _DEBUG /D _CONSOLE /D _UNICODE /D UNICODE /Gm- /EHsc /RTC1 /MDd /GS /fp:precise /permissive- /Zc:wchar_t /Zc:forScope /Zc:inline /Fo"DEBUG\\" /Fd"DEBUG\VC142.PDB" /Gd /TP /analyze- /FC C:\USERS\OWNER\DOCUMENTS\EITAN\MAGSHIMIM\C++\CHESSPROJECT\MY-MERGE-CONFLICT-PROJECT\CHESSGAME\CHESSGAME\KING.CPP
^C:\USERS\OWNER\DOCUMENTS\EITAN\MAGSHIMIM\C++\CHESSPROJECT\MY-MERGE-CONFLICT-PROJECT\CHESSGAME\CHESSGAME\ROOK.CPP
/c /ZI /JMC /nologo /W3 /WX- /diagnostics:column /sdl /Od /Oy- /D WIN32 /D _DEBUG /D _CONSOLE /D _UNICODE /D UNICODE /Gm- /EHsc /RTC1 /MDd /GS /fp:precise /permissive- /Zc:wchar_t /Zc:forScope /Zc:inline /Fo"DEBUG\\" /Fd"DEBUG\VC142.PDB" /Gd /TP /analyze- /FC C:\USERS\OWNER\DOCUMENTS\EITAN\MAGSHIMIM\C++\CHESSPROJECT\MY-MERGE-CONFLICT-PROJECT\CHESSGAME\CHESSGAME\ROOK.CPP
^C:\USERS\OWNER\DOCUMENTS\EITAN\MAGSHIMIM\C++\CHESSPROJECT\MY-MERGE-CONFLICT-PROJECT\CHESSGAME\CHESSGAME\BOARD.CPP
/c /ZI /JMC /nologo /W3 /WX- /diagnostics:column /sdl /Od /Oy- /D WIN32 /D _DEBUG /D _CONSOLE /D _UNICODE /D UNICODE /Gm- /EHsc /RTC1 /MDd /GS /fp:precise /permissive- /Zc:wchar_t /Zc:forScope /Zc:inline /Fo"DEBUG\\" /Fd"DEBUG\VC142.PDB" /Gd /TP /analyze- /FC C:\USERS\OWNER\DOCUMENTS\EITAN\MAGSHIMIM\C++\CHESSPROJECT\MY-MERGE-CONFLICT-PROJECT\CHESSGAME\CHESSGAME\BOARD.CPP
^C:\USERS\OWNER\DOCUMENTS\EITAN\MAGSHIMIM\C++\CHESSPROJECT\MY-MERGE-CONFLICT-PROJECT\CHESSGAME\CHESSGAME\SOURCE.CPP
/c /ZI /JMC /nologo /W3 /WX- /diagnostics:column /sdl /Od /Oy- /D WIN32 /D _DEBUG /D _CONSOLE /D _UNICODE /D UNICODE /Gm- /EHsc /RTC1 /MDd /GS /fp:precise /permissive- /Zc:wchar_t /Zc:forScope /Zc:inline /Fo"DEBUG\\" /Fd"DEBUG\VC142.PDB" /Gd /TP /analyze- /FC C:\USERS\OWNER\DOCUMENTS\EITAN\MAGSHIMIM\C++\CHESSPROJECT\MY-MERGE-CONFLICT-PROJECT\CHESSGAME\CHESSGAME\SOURCE.CPP
