^C:\USERS\OWNER\DOCUMENTS\EITAN\MAGSHIMIM\C++\CHESSPROJECT\MY-MERGE-CONFLICT-PROJECT-MASTER\CHESSGAME\CHESSGAME\BOARD.CPP|C:\USERS\OWNER\DOCUMENTS\EITAN\MAGSHIMIM\C++\CHESSPROJECT\MY-MERGE-CONFLICT-PROJECT-MASTER\CHESSGAME\CHESSGAME\CHESSPIECE.CPP|C:\USERS\OWNER\DOCUMENTS\EITAN\MAGSHIMIM\C++\CHESSPROJECT\MY-MERGE-CONFLICT-PROJECT-MASTER\CHESSGAME\CHESSGAME\EMPTY.CPP|C:\USERS\OWNER\DOCUMENTS\EITAN\MAGSHIMIM\C++\CHESSPROJECT\MY-MERGE-CONFLICT-PROJECT-MASTER\CHESSGAME\CHESSGAME\KING.CPP|C:\USERS\OWNER\DOCUMENTS\EITAN\MAGSHIMIM\C++\CHESSPROJECT\MY-MERGE-CONFLICT-PROJECT-MASTER\CHESSGAME\CHESSGAME\ROOK.CPP|C:\USERS\OWNER\DOCUMENTS\EITAN\MAGSHIMIM\C++\CHESSPROJECT\MY-MERGE-CONFLICT-PROJECT-MASTER\CHESSGAME\CHESSGAME\SOURCE.CPP|C:\USERS\OWNER\DOCUMENTS\EITAN\MAGSHIMIM\C++\CHESSPROJECT\MY-MERGE-CONFLICT-PROJECT-MASTER\CHESSGAME\CHESSGAME\STDAFX.CPP
C:\USERS\OWNER\DOCUMENTS\EITAN\MAGSHIMIM\C++\CHESSPROJECT\MY-MERGE-CONFLICT-PROJECT-MASTER\CHESSGAME\CHESSGAME\DEBUG\VC142.PDB
C:\USERS\OWNER\DOCUMENTS\EITAN\MAGSHIMIM\C++\CHESSPROJECT\MY-MERGE-CONFLICT-PROJECT-MASTER\CHESSGAME\CHESSGAME\DEBUG\VC142.IDB
C:\USERS\OWNER\DOCUMENTS\EITAN\MAGSHIMIM\C++\CHESSPROJECT\MY-MERGE-CONFLICT-PROJECT-MASTER\CHESSGAME\CHESSGAME\DEBUG\STDAFX.OBJ
C:\USERS\OWNER\DOCUMENTS\EITAN\MAGSHIMIM\C++\CHESSPROJECT\MY-MERGE-CONFLICT-PROJECT-MASTER\CHESSGAME\CHESSGAME\DEBUG\SOURCE.OBJ
C:\USERS\OWNER\DOCUMENTS\EITAN\MAGSHIMIM\C++\CHESSPROJECT\MY-MERGE-CONFLICT-PROJECT-MASTER\CHESSGAME\CHESSGAME\DEBUG\ROOK.OBJ
C:\USERS\OWNER\DOCUMENTS\EITAN\MAGSHIMIM\C++\CHESSPROJECT\MY-MERGE-CONFLICT-PROJECT-MASTER\CHESSGAME\CHESSGAME\DEBUG\KING.OBJ
C:\USERS\OWNER\DOCUMENTS\EITAN\MAGSHIMIM\C++\CHESSPROJECT\MY-MERGE-CONFLICT-PROJECT-MASTER\CHESSGAME\CHESSGAME\DEBUG\EMPTY.OBJ
C:\USERS\OWNER\DOCUMENTS\EITAN\MAGSHIMIM\C++\CHESSPROJECT\MY-MERGE-CONFLICT-PROJECT-MASTER\CHESSGAME\CHESSGAME\DEBUG\CHESSPIECE.OBJ
C:\USERS\OWNER\DOCUMENTS\EITAN\MAGSHIMIM\C++\CHESSPROJECT\MY-MERGE-CONFLICT-PROJECT-MASTER\CHESSGAME\CHESSGAME\DEBUG\BOARD.OBJ
^C:\USERS\OWNER\DOCUMENTS\EITAN\MAGSHIMIM\C++\CHESSPROJECT\MY-MERGE-CONFLICT-PROJECT-MASTER\CHESSGAME\CHESSGAME\STDAFX.CPP
C:\USERS\OWNER\DOCUMENTS\EITAN\MAGSHIMIM\C++\CHESSPROJECT\MY-MERGE-CONFLICT-PROJECT-MASTER\CHESSGAME\CHESSGAME\DEBUG\VC142.PDB
^C:\USERS\OWNER\DOCUMENTS\EITAN\MAGSHIMIM\C++\CHESSPROJECT\MY-MERGE-CONFLICT-PROJECT-MASTER\CHESSGAME\CHESSGAME\BOARD.CPP|C:\USERS\OWNER\DOCUMENTS\EITAN\MAGSHIMIM\C++\CHESSPROJECT\MY-MERGE-CONFLICT-PROJECT-MASTER\CHESSGAME\CHESSGAME\SOURCE.CPP
C:\USERS\OWNER\DOCUMENTS\EITAN\MAGSHIMIM\C++\CHESSPROJECT\MY-MERGE-CONFLICT-PROJECT-MASTER\CHESSGAME\CHESSGAME\DEBUG\VC142.PDB
C:\USERS\OWNER\DOCUMENTS\EITAN\MAGSHIMIM\C++\CHESSPROJECT\MY-MERGE-CONFLICT-PROJECT-MASTER\CHESSGAME\CHESSGAME\DEBUG\VC142.IDB
C:\USERS\OWNER\DOCUMENTS\EITAN\MAGSHIMIM\C++\CHESSPROJECT\MY-MERGE-CONFLICT-PROJECT-MASTER\CHESSGAME\CHESSGAME\DEBUG\SOURCE.OBJ
C:\USERS\OWNER\DOCUMENTS\EITAN\MAGSHIMIM\C++\CHESSPROJECT\MY-MERGE-CONFLICT-PROJECT-MASTER\CHESSGAME\CHESSGAME\DEBUG\BOARD.OBJ
^C:\USERS\OWNER\DOCUMENTS\EITAN\MAGSHIMIM\C++\CHESSPROJECT\MY-MERGE-CONFLICT-PROJECT-MASTER\CHESSGAME\CHESSGAME\BOARD.CPP|C:\USERS\OWNER\DOCUMENTS\EITAN\MAGSHIMIM\C++\CHESSPROJECT\MY-MERGE-CONFLICT-PROJECT-MASTER\CHESSGAME\CHESSGAME\CHESSPIECE.CPP|C:\USERS\OWNER\DOCUMENTS\EITAN\MAGSHIMIM\C++\CHESSPROJECT\MY-MERGE-CONFLICT-PROJECT-MASTER\CHESSGAME\CHESSGAME\EMPTY.CPP|C:\USERS\OWNER\DOCUMENTS\EITAN\MAGSHIMIM\C++\CHESSPROJECT\MY-MERGE-CONFLICT-PROJECT-MASTER\CHESSGAME\CHESSGAME\KING.CPP|C:\USERS\OWNER\DOCUMENTS\EITAN\MAGSHIMIM\C++\CHESSPROJECT\MY-MERGE-CONFLICT-PROJECT-MASTER\CHESSGAME\CHESSGAME\ROOK.CPP|C:\USERS\OWNER\DOCUMENTS\EITAN\MAGSHIMIM\C++\CHESSPROJECT\MY-MERGE-CONFLICT-PROJECT-MASTER\CHESSGAME\CHESSGAME\SOURCE.CPP
C:\USERS\OWNER\DOCUMENTS\EITAN\MAGSHIMIM\C++\CHESSPROJECT\MY-MERGE-CONFLICT-PROJECT-MASTER\CHESSGAME\CHESSGAME\DEBUG\VC142.PDB
C:\USERS\OWNER\DOCUMENTS\EITAN\MAGSHIMIM\C++\CHESSPROJECT\MY-MERGE-CONFLICT-PROJECT-MASTER\CHESSGAME\CHESSGAME\DEBUG\VC142.IDB
C:\USERS\OWNER\DOCUMENTS\EITAN\MAGSHIMIM\C++\CHESSPROJECT\MY-MERGE-CONFLICT-PROJECT-MASTER\CHESSGAME\CHESSGAME\DEBUG\SOURCE.OBJ
C:\USERS\OWNER\DOCUMENTS\EITAN\MAGSHIMIM\C++\CHESSPROJECT\MY-MERGE-CONFLICT-PROJECT-MASTER\CHESSGAME\CHESSGAME\DEBUG\ROOK.OBJ
C:\USERS\OWNER\DOCUMENTS\EITAN\MAGSHIMIM\C++\CHESSPROJECT\MY-MERGE-CONFLICT-PROJECT-MASTER\CHESSGAME\CHESSGAME\DEBUG\KING.OBJ
C:\USERS\OWNER\DOCUMENTS\EITAN\MAGSHIMIM\C++\CHESSPROJECT\MY-MERGE-CONFLICT-PROJECT-MASTER\CHESSGAME\CHESSGAME\DEBUG\EMPTY.OBJ
C:\USERS\OWNER\DOCUMENTS\EITAN\MAGSHIMIM\C++\CHESSPROJECT\MY-MERGE-CONFLICT-PROJECT-MASTER\CHESSGAME\CHESSGAME\DEBUG\CHESSPIECE.OBJ
C:\USERS\OWNER\DOCUMENTS\EITAN\MAGSHIMIM\C++\CHESSPROJECT\MY-MERGE-CONFLICT-PROJECT-MASTER\CHESSGAME\CHESSGAME\DEBUG\BOARD.OBJ
^C:\USERS\OWNER\DOCUMENTS\EITAN\MAGSHIMIM\C++\CHESSPROJECT\MY-MERGE-CONFLICT-PROJECT-MASTER\CHESSGAME\CHESSGAME\CHESSPIECE.CPP
C:\USERS\OWNER\DOCUMENTS\EITAN\MAGSHIMIM\C++\CHESSPROJECT\MY-MERGE-CONFLICT-PROJECT-MASTER\CHESSGAME\CHESSGAME\DEBUG\VC142.PDB
^C:\USERS\OWNER\DOCUMENTS\EITAN\MAGSHIMIM\C++\CHESSPROJECT\MY-MERGE-CONFLICT-PROJECT-MASTER\CHESSGAME\CHESSGAME\EMPTY.CPP
C:\USERS\OWNER\DOCUMENTS\EITAN\MAGSHIMIM\C++\CHESSPROJECT\MY-MERGE-CONFLICT-PROJECT-MASTER\CHESSGAME\CHESSGAME\DEBUG\VC142.PDB
^C:\USERS\OWNER\DOCUMENTS\EITAN\MAGSHIMIM\C++\CHESSPROJECT\MY-MERGE-CONFLICT-PROJECT-MASTER\CHESSGAME\CHESSGAME\KING.CPP
C:\USERS\OWNER\DOCUMENTS\EITAN\MAGSHIMIM\C++\CHESSPROJECT\MY-MERGE-CONFLICT-PROJECT-MASTER\CHESSGAME\CHESSGAME\DEBUG\VC142.PDB
^C:\USERS\OWNER\DOCUMENTS\EITAN\MAGSHIMIM\C++\CHESSPROJECT\MY-MERGE-CONFLICT-PROJECT-MASTER\CHESSGAME\CHESSGAME\ROOK.CPP
C:\USERS\OWNER\DOCUMENTS\EITAN\MAGSHIMIM\C++\CHESSPROJECT\MY-MERGE-CONFLICT-PROJECT-MASTER\CHESSGAME\CHESSGAME\DEBUG\VC142.PDB
^C:\USERS\OWNER\DOCUMENTS\EITAN\MAGSHIMIM\C++\CHESSPROJECT\MY-MERGE-CONFLICT-PROJECT-MASTER\CHESSGAME\CHESSGAME\BOARD.CPP
C:\USERS\OWNER\DOCUMENTS\EITAN\MAGSHIMIM\C++\CHESSPROJECT\MY-MERGE-CONFLICT-PROJECT-MASTER\CHESSGAME\CHESSGAME\DEBUG\VC142.PDB
C:\USERS\OWNER\DOCUMENTS\EITAN\MAGSHIMIM\C++\CHESSPROJECT\MY-MERGE-CONFLICT-PROJECT-MASTER\CHESSGAME\CHESSGAME\DEBUG\VC142.IDB
C:\USERS\OWNER\DOCUMENTS\EITAN\MAGSHIMIM\C++\CHESSPROJECT\MY-MERGE-CONFLICT-PROJECT-MASTER\CHESSGAME\CHESSGAME\DEBUG\BOARD.OBJ
^C:\USERS\OWNER\DOCUMENTS\EITAN\MAGSHIMIM\C++\CHESSPROJECT\MY-MERGE-CONFLICT-PROJECT-MASTER\CHESSGAME\CHESSGAME\SOURCE.CPP
C:\USERS\OWNER\DOCUMENTS\EITAN\MAGSHIMIM\C++\CHESSPROJECT\MY-MERGE-CONFLICT-PROJECT-MASTER\CHESSGAME\CHESSGAME\DEBUG\VC142.PDB
C:\USERS\OWNER\DOCUMENTS\EITAN\MAGSHIMIM\C++\CHESSPROJECT\MY-MERGE-CONFLICT-PROJECT-MASTER\CHESSGAME\CHESSGAME\DEBUG\VC142.IDB
C:\USERS\OWNER\DOCUMENTS\EITAN\MAGSHIMIM\C++\CHESSPROJECT\MY-MERGE-CONFLICT-PROJECT-MASTER\CHESSGAME\CHESSGAME\DEBUG\SOURCE.OBJ
^C:\USERS\OWNER\DOCUMENTS\EITAN\MAGSHIMIM\C++\CHESSPROJECT\MY-MERGE-CONFLICT-PROJECT\CHESSGAME\CHESSGAME\BOARD.CPP|C:\USERS\OWNER\DOCUMENTS\EITAN\MAGSHIMIM\C++\CHESSPROJECT\MY-MERGE-CONFLICT-PROJECT\CHESSGAME\CHESSGAME\CHESSPIECE.CPP|C:\USERS\OWNER\DOCUMENTS\EITAN\MAGSHIMIM\C++\CHESSPROJECT\MY-MERGE-CONFLICT-PROJECT\CHESSGAME\CHESSGAME\EMPTY.CPP|C:\USERS\OWNER\DOCUMENTS\EITAN\MAGSHIMIM\C++\CHESSPROJECT\MY-MERGE-CONFLICT-PROJECT\CHESSGAME\CHESSGAME\KING.CPP|C:\USERS\OWNER\DOCUMENTS\EITAN\MAGSHIMIM\C++\CHESSPROJECT\MY-MERGE-CONFLICT-PROJECT\CHESSGAME\CHESSGAME\ROOK.CPP|C:\USERS\OWNER\DOCUMENTS\EITAN\MAGSHIMIM\C++\CHESSPROJECT\MY-MERGE-CONFLICT-PROJECT\CHESSGAME\CHESSGAME\SOURCE.CPP|C:\USERS\OWNER\DOCUMENTS\EITAN\MAGSHIMIM\C++\CHESSPROJECT\MY-MERGE-CONFLICT-PROJECT\CHESSGAME\CHESSGAME\STDAFX.CPP
C:\USERS\OWNER\DOCUMENTS\EITAN\MAGSHIMIM\C++\CHESSPROJECT\MY-MERGE-CONFLICT-PROJECT\CHESSGAME\CHESSGAME\DEBUG\VC142.PDB
C:\USERS\OWNER\DOCUMENTS\EITAN\MAGSHIMIM\C++\CHESSPROJECT\MY-MERGE-CONFLICT-PROJECT\CHESSGAME\CHESSGAME\DEBUG\VC142.IDB
C:\USERS\OWNER\DOCUMENTS\EITAN\MAGSHIMIM\C++\CHESSPROJECT\MY-MERGE-CONFLICT-PROJECT\CHESSGAME\CHESSGAME\DEBUG\STDAFX.OBJ
C:\USERS\OWNER\DOCUMENTS\EITAN\MAGSHIMIM\C++\CHESSPROJECT\MY-MERGE-CONFLICT-PROJECT\CHESSGAME\CHESSGAME\DEBUG\SOURCE.OBJ
C:\USERS\OWNER\DOCUMENTS\EITAN\MAGSHIMIM\C++\CHESSPROJECT\MY-MERGE-CONFLICT-PROJECT\CHESSGAME\CHESSGAME\DEBUG\ROOK.OBJ
C:\USERS\OWNER\DOCUMENTS\EITAN\MAGSHIMIM\C++\CHESSPROJECT\MY-MERGE-CONFLICT-PROJECT\CHESSGAME\CHESSGAME\DEBUG\KING.OBJ
C:\USERS\OWNER\DOCUMENTS\EITAN\MAGSHIMIM\C++\CHESSPROJECT\MY-MERGE-CONFLICT-PROJECT\CHESSGAME\CHESSGAME\DEBUG\EMPTY.OBJ
C:\USERS\OWNER\DOCUMENTS\EITAN\MAGSHIMIM\C++\CHESSPROJECT\MY-MERGE-CONFLICT-PROJECT\CHESSGAME\CHESSGAME\DEBUG\CHESSPIECE.OBJ
C:\USERS\OWNER\DOCUMENTS\EITAN\MAGSHIMIM\C++\CHESSPROJECT\MY-MERGE-CONFLICT-PROJECT\CHESSGAME\CHESSGAME\DEBUG\BOARD.OBJ
^C:\USERS\OWNER\DOCUMENTS\EITAN\MAGSHIMIM\C++\CHESSPROJECT\MY-MERGE-CONFLICT-PROJECT\CHESSGAME\CHESSGAME\STDAFX.CPP
C:\USERS\OWNER\DOCUMENTS\EITAN\MAGSHIMIM\C++\CHESSPROJECT\MY-MERGE-CONFLICT-PROJECT\CHESSGAME\CHESSGAME\DEBUG\VC142.PDB
^C:\USERS\OWNER\DOCUMENTS\EITAN\MAGSHIMIM\C++\CHESSPROJECT\MY-MERGE-CONFLICT-PROJECT\CHESSGAME\CHESSGAME\BOARD.CPP|C:\USERS\OWNER\DOCUMENTS\EITAN\MAGSHIMIM\C++\CHESSPROJECT\MY-MERGE-CONFLICT-PROJECT\CHESSGAME\CHESSGAME\CHESSPIECE.CPP|C:\USERS\OWNER\DOCUMENTS\EITAN\MAGSHIMIM\C++\CHESSPROJECT\MY-MERGE-CONFLICT-PROJECT\CHESSGAME\CHESSGAME\EMPTY.CPP|C:\USERS\OWNER\DOCUMENTS\EITAN\MAGSHIMIM\C++\CHESSPROJECT\MY-MERGE-CONFLICT-PROJECT\CHESSGAME\CHESSGAME\KING.CPP|C:\USERS\OWNER\DOCUMENTS\EITAN\MAGSHIMIM\C++\CHESSPROJECT\MY-MERGE-CONFLICT-PROJECT\CHESSGAME\CHESSGAME\ROOK.CPP|C:\USERS\OWNER\DOCUMENTS\EITAN\MAGSHIMIM\C++\CHESSPROJECT\MY-MERGE-CONFLICT-PROJECT\CHESSGAME\CHESSGAME\SOURCE.CPP
C:\USERS\OWNER\DOCUMENTS\EITAN\MAGSHIMIM\C++\CHESSPROJECT\MY-MERGE-CONFLICT-PROJECT\CHESSGAME\CHESSGAME\DEBUG\VC142.PDB
C:\USERS\OWNER\DOCUMENTS\EITAN\MAGSHIMIM\C++\CHESSPROJECT\MY-MERGE-CONFLICT-PROJECT\CHESSGAME\CHESSGAME\DEBUG\VC142.IDB
C:\USERS\OWNER\DOCUMENTS\EITAN\MAGSHIMIM\C++\CHESSPROJECT\MY-MERGE-CONFLICT-PROJECT\CHESSGAME\CHESSGAME\DEBUG\SOURCE.OBJ
C:\USERS\OWNER\DOCUMENTS\EITAN\MAGSHIMIM\C++\CHESSPROJECT\MY-MERGE-CONFLICT-PROJECT\CHESSGAME\CHESSGAME\DEBUG\ROOK.OBJ
C:\USERS\OWNER\DOCUMENTS\EITAN\MAGSHIMIM\C++\CHESSPROJECT\MY-MERGE-CONFLICT-PROJECT\CHESSGAME\CHESSGAME\DEBUG\KING.OBJ
C:\USERS\OWNER\DOCUMENTS\EITAN\MAGSHIMIM\C++\CHESSPROJECT\MY-MERGE-CONFLICT-PROJECT\CHESSGAME\CHESSGAME\DEBUG\EMPTY.OBJ
C:\USERS\OWNER\DOCUMENTS\EITAN\MAGSHIMIM\C++\CHESSPROJECT\MY-MERGE-CONFLICT-PROJECT\CHESSGAME\CHESSGAME\DEBUG\CHESSPIECE.OBJ
^C:\USERS\OWNER\DOCUMENTS\EITAN\MAGSHIMIM\C++\CHESSPROJECT\MY-MERGE-CONFLICT-PROJECT\CHESSGAME\CHESSGAME\CHESSPIECE.CPP
C:\USERS\OWNER\DOCUMENTS\EITAN\MAGSHIMIM\C++\CHESSPROJECT\MY-MERGE-CONFLICT-PROJECT\CHESSGAME\CHESSGAME\DEBUG\CHESSPIECE.OBJ
^C:\USERS\OWNER\DOCUMENTS\EITAN\MAGSHIMIM\C++\CHESSPROJECT\MY-MERGE-CONFLICT-PROJECT\CHESSGAME\CHESSGAME\EMPTY.CPP
C:\USERS\OWNER\DOCUMENTS\EITAN\MAGSHIMIM\C++\CHESSPROJECT\MY-MERGE-CONFLICT-PROJECT\CHESSGAME\CHESSGAME\DEBUG\EMPTY.OBJ
^C:\USERS\OWNER\DOCUMENTS\EITAN\MAGSHIMIM\C++\CHESSPROJECT\MY-MERGE-CONFLICT-PROJECT\CHESSGAME\CHESSGAME\KING.CPP
C:\USERS\OWNER\DOCUMENTS\EITAN\MAGSHIMIM\C++\CHESSPROJECT\MY-MERGE-CONFLICT-PROJECT\CHESSGAME\CHESSGAME\DEBUG\KING.OBJ
^C:\USERS\OWNER\DOCUMENTS\EITAN\MAGSHIMIM\C++\CHESSPROJECT\MY-MERGE-CONFLICT-PROJECT\CHESSGAME\CHESSGAME\ROOK.CPP
C:\USERS\OWNER\DOCUMENTS\EITAN\MAGSHIMIM\C++\CHESSPROJECT\MY-MERGE-CONFLICT-PROJECT\CHESSGAME\CHESSGAME\DEBUG\ROOK.OBJ
^C:\USERS\OWNER\DOCUMENTS\EITAN\MAGSHIMIM\C++\CHESSPROJECT\MY-MERGE-CONFLICT-PROJECT\CHESSGAME\CHESSGAME\BOARD.CPP|C:\USERS\OWNER\DOCUMENTS\EITAN\MAGSHIMIM\C++\CHESSPROJECT\MY-MERGE-CONFLICT-PROJECT\CHESSGAME\CHESSGAME\SOURCE.CPP
C:\USERS\OWNER\DOCUMENTS\EITAN\MAGSHIMIM\C++\CHESSPROJECT\MY-MERGE-CONFLICT-PROJECT\CHESSGAME\CHESSGAME\DEBUG\VC142.PDB
C:\USERS\OWNER\DOCUMENTS\EITAN\MAGSHIMIM\C++\CHESSPROJECT\MY-MERGE-CONFLICT-PROJECT\CHESSGAME\CHESSGAME\DEBUG\VC142.IDB
C:\USERS\OWNER\DOCUMENTS\EITAN\MAGSHIMIM\C++\CHESSPROJECT\MY-MERGE-CONFLICT-PROJECT\CHESSGAME\CHESSGAME\DEBUG\SOURCE.OBJ
C:\USERS\OWNER\DOCUMENTS\EITAN\MAGSHIMIM\C++\CHESSPROJECT\MY-MERGE-CONFLICT-PROJECT\CHESSGAME\CHESSGAME\DEBUG\BOARD.OBJ
^C:\USERS\OWNER\DOCUMENTS\EITAN\MAGSHIMIM\C++\CHESSPROJECT\MY-MERGE-CONFLICT-PROJECT\CHESSGAME\CHESSGAME\BOARD.CPP
C:\USERS\OWNER\DOCUMENTS\EITAN\MAGSHIMIM\C++\CHESSPROJECT\MY-MERGE-CONFLICT-PROJECT\CHESSGAME\CHESSGAME\DEBUG\VC142.PDB
^C:\USERS\OWNER\DOCUMENTS\EITAN\MAGSHIMIM\C++\CHESSPROJECT\MY-MERGE-CONFLICT-PROJECT\CHESSGAME\CHESSGAME\SOURCE.CPP
C:\USERS\OWNER\DOCUMENTS\EITAN\MAGSHIMIM\C++\CHESSPROJECT\MY-MERGE-CONFLICT-PROJECT\CHESSGAME\CHESSGAME\DEBUG\VC142.PDB
